HW3/simulation/qsim/HW3P2.msim.vcd
$comment
	File created using the following command:
		vcd file HW3P2.msim.vcd -direction
$end
$date
	Tue Feb 17 22:56:26 2015
$end
$version
	ModelSim Version 10.1d
$end
$timescale
	1ps
$end
$scope module HW3P2_vlg_vec_tst $end
$var reg 1 ! A $end
$var reg 1 " B $end
$var reg 1 # C $end
$var reg 1 $ D $end
$var wire 1 % F1 $end
$var wire 1 & F2 $end
$var wire 1 ' sampler $end
$scope module i1 $end
$var wire 1 ( gnd $end
$var wire 1 ) vcc $end
$var wire 1 * unknown $end
$var tri1 1 + devclrn $end
$var tri1 1 , devpor $end
$var tri1 1 - devoe $end
$var wire 1 . F1~output_o $end
$var wire 1 / F2~output_o $end
$var wire 1 0 D~input_o $end
$var wire 1 1 B~input_o $end
$var wire 1 2 A~input_o $end
$var wire 1 3 C~input_o $end
$var wire 1 4 inst6~0_combout $end
$upscope $end
$upscope $end
$enddefinitions $end
#0
$dumpvars
0!
0"
0#
0$
0%
0&
x'
0(
1)
x*
1+
1,
1-
0.
0/
00
01
02
03
04
$end
#62000
1$
10
0'
#124000
1#
0$
13
00
1'
14
1/
1.
1&
1%
#186000
1$
10
0'
#248000
1"
0#
0$
11
03
00
1'
04
0/
0.
0&
0%
#310000
1$
10
0'
#372000
1#
0$
13
00
1'
#434000
1$
10
0'
#496000
1!
0"
0#
0$
12
01
03
00
1'
#558000
1$
10
0'
#620000
1#
0$
13
00
1'
14
1/
1.
1&
1%
#682000
1$
10
0'
#744000
1"
0#
0$
11
03
00
1'
#806000
1$
10
0'
#868000
1#
0$
13
00
1'
04
0/
0.
0&
0%
#930000
1$
10
0'
14
1/
1.
1&
1%
